%YAML 1.1
%TAG !u! tag:unity3d.com,2011:
--- !u!1001 &4190150792397532121
PrefabInstance:
  m_ObjectHideFlags: 0
  serializedVersion: 2
  m_Modification:
    m_TransformParent: {fileID: 0}
    m_Modifications:
    - target: {fileID: 329392518439049837, guid: 1aaba25614356e34f858b9f1241964ac,
        type: 3}
      propertyPath: m_Name
      value: BlackOlives
      objectReference: {fileID: 0}
    - target: {fileID: 5731487940629140516, guid: 1aaba25614356e34f858b9f1241964ac,
        type: 3}
      propertyPath: m_LocalPosition.x
      value: 0
      objectReference: {fileID: 0}
    - target: {fileID: 5731487940629140516, guid: 1aaba25614356e34f858b9f1241964ac,
        type: 3}
      propertyPath: m_LocalPosition.y
      value: 0
      objectReference: {fileID: 0}
    - target: {fileID: 5731487940629140516, guid: 1aaba25614356e34f858b9f1241964ac,
        type: 3}
      propertyPath: m_LocalPosition.z
      value: 0
      objectReference: {fileID: 0}
    - target: {fileID: 5731487940629140516, guid: 1aaba25614356e34f858b9f1241964ac,
        type: 3}
      propertyPath: m_LocalRotation.x
      value: 0
      objectReference: {fileID: 0}
    - target: {fileID: 5731487940629140516, guid: 1aaba25614356e34f858b9f1241964ac,
        type: 3}
      propertyPath: m_LocalRotation.y
      value: 0
      objectReference: {fileID: 0}
    - target: {fileID: 5731487940629140516, guid: 1aaba25614356e34f858b9f1241964ac,
        type: 3}
      propertyPath: m_LocalRotation.z
      value: -0.38268343
      objectReference: {fileID: 0}
    - target: {fileID: 5731487940629140516, guid: 1aaba25614356e34f858b9f1241964ac,
        type: 3}
      propertyPath: m_LocalRotation.w
      value: 0.92387956
      objectReference: {fileID: 0}
    - target: {fileID: 5731487940629140516, guid: 1aaba25614356e34f858b9f1241964ac,
        type: 3}
      propertyPath: m_RootOrder
      value: 0
      objectReference: {fileID: 0}
    - target: {fileID: 5731487940629140516, guid: 1aaba25614356e34f858b9f1241964ac,
        type: 3}
      propertyPath: m_LocalEulerAnglesHint.x
      value: 0
      objectReference: {fileID: 0}
    - target: {fileID: 5731487940629140516, guid: 1aaba25614356e34f858b9f1241964ac,
        type: 3}
      propertyPath: m_LocalEulerAnglesHint.y
      value: 0
      objectReference: {fileID: 0}
    - target: {fileID: 5731487940629140516, guid: 1aaba25614356e34f858b9f1241964ac,
        type: 3}
      propertyPath: m_LocalEulerAnglesHint.z
      value: -45
      objectReference: {fileID: 0}
    - target: {fileID: 6504276672200987771, guid: 1aaba25614356e34f858b9f1241964ac,
        type: 3}
      propertyPath: m_Sprite
      value: 
      objectReference: {fileID: 21300000, guid: abca3c34a77ba24458d199bb3de0e798,
        type: 3}
    m_RemovedComponents: []
  m_SourcePrefab: {fileID: 100100000, guid: 1aaba25614356e34f858b9f1241964ac, type: 3}
