%YAML 1.1
%TAG !u! tag:unity3d.com,2011:
--- !u!1001 &3888071363519553489
PrefabInstance:
  m_ObjectHideFlags: 0
  serializedVersion: 2
  m_Modification:
    m_TransformParent: {fileID: 0}
    m_Modifications:
    - target: {fileID: 4518336596819718580, guid: c6b7328bc68e5e04ea73598e4046c245,
        type: 3}
      propertyPath: m_Name
      value: GreenOlives
      objectReference: {fileID: 0}
    - target: {fileID: 8479207278427226109, guid: c6b7328bc68e5e04ea73598e4046c245,
        type: 3}
      propertyPath: m_LocalPosition.x
      value: 0
      objectReference: {fileID: 0}
    - target: {fileID: 8479207278427226109, guid: c6b7328bc68e5e04ea73598e4046c245,
        type: 3}
      propertyPath: m_LocalPosition.y
      value: 0
      objectReference: {fileID: 0}
    - target: {fileID: 8479207278427226109, guid: c6b7328bc68e5e04ea73598e4046c245,
        type: 3}
      propertyPath: m_LocalPosition.z
      value: 0
      objectReference: {fileID: 0}
    - target: {fileID: 8479207278427226109, guid: c6b7328bc68e5e04ea73598e4046c245,
        type: 3}
      propertyPath: m_LocalRotation.x
      value: 0
      objectReference: {fileID: 0}
    - target: {fileID: 8479207278427226109, guid: c6b7328bc68e5e04ea73598e4046c245,
        type: 3}
      propertyPath: m_LocalRotation.y
      value: 0
      objectReference: {fileID: 0}
    - target: {fileID: 8479207278427226109, guid: c6b7328bc68e5e04ea73598e4046c245,
        type: 3}
      propertyPath: m_LocalRotation.z
      value: 0.7071068
      objectReference: {fileID: 0}
    - target: {fileID: 8479207278427226109, guid: c6b7328bc68e5e04ea73598e4046c245,
        type: 3}
      propertyPath: m_LocalRotation.w
      value: 0.7071068
      objectReference: {fileID: 0}
    - target: {fileID: 8479207278427226109, guid: c6b7328bc68e5e04ea73598e4046c245,
        type: 3}
      propertyPath: m_RootOrder
      value: 0
      objectReference: {fileID: 0}
    - target: {fileID: 8479207278427226109, guid: c6b7328bc68e5e04ea73598e4046c245,
        type: 3}
      propertyPath: m_LocalEulerAnglesHint.x
      value: 0
      objectReference: {fileID: 0}
    - target: {fileID: 8479207278427226109, guid: c6b7328bc68e5e04ea73598e4046c245,
        type: 3}
      propertyPath: m_LocalEulerAnglesHint.y
      value: 0
      objectReference: {fileID: 0}
    - target: {fileID: 8479207278427226109, guid: c6b7328bc68e5e04ea73598e4046c245,
        type: 3}
      propertyPath: m_LocalEulerAnglesHint.z
      value: 90
      objectReference: {fileID: 0}
    - target: {fileID: 6946154667232165794, guid: c6b7328bc68e5e04ea73598e4046c245,
        type: 3}
      propertyPath: m_Sprite
      value: 
      objectReference: {fileID: 21300000, guid: 38ea5dbf4a0eafd4f81c82561c3d539d,
        type: 3}
    m_RemovedComponents: []
  m_SourcePrefab: {fileID: 100100000, guid: c6b7328bc68e5e04ea73598e4046c245, type: 3}
